_id,date_updated,date_created,customer_id,currency,name,type,balance,iban,pan,provider_id,holder_name,bban,consent_id
609bde772e83057c2f482c93,2021-05-12 16:56:07.875,2021-05-12 16:56:07.875,609bdd7d2e83057c2f482c91,EUR,PAYROLL ACC,checking,2000,GR2801725050005703737347565,,GR2801725050005703737347565,KYRIAKOS PAPADOPOULOS ILIA,,85f334b4-31f9-42d0-bd7f-b843bf69ab52
609bf18b39433558433116c1,2021-05-12 18:17:31.897,2021-05-12 18:17:31.897,609bf15339433558433116be,EUR,ΛΟΓΑΡΙΑΣΜΟΣ ΜΙΣΘΟΔΟΣΙΑΣ/ΣΥΝΤΑΞΗΣ,checking,13.24,GR7802602790000670356236734,,GR7802602790000670356236734,ΝΙΚΟΛΟΠΟΥΛΟΣ ΙΩΑΝΝΗΣ ΒΑΣΙΛΗΣ,,85f334b4-31f9-42d0-bd7f-b843bf69a334
609bde772e83057c2f482c94,2021-05-12 16:56:07.875,2021-05-12 16:56:07.875,609bdd7d2e83057c2f482c91,EUR,AGRICULTURAL SAVINGS ACC,saving,15.83,GR6401711320006153432233452,,GR6401711320006153432233452,GIANNOYLIS KWNSTANTINOS KYRIAKOS,,85f334b4-31f9-42d0-bd7f-b843bf69a839
609bf055394335584331162d,2021-05-12 18:12:21.161,2021-05-12 18:12:21.161,609bef14394335584331162a,EUR,Debit MasterCard Consumer,debit,0,,5351420005363621,cca4e99e-029f-6bc1-952a-54b9cee42637,,,85f334b4-31f9-42d0-bd7f-b843bf69a83a
609bdc482e83057c2f4829f9,2021-05-12 16:46:48.233,2021-05-12 16:46:48.233,609bdbd42e83057c2f4829f6,EUR,Alpha Bank Enter Bonus Visa,debit,0,,4017790000226727,eyJpIjo4Mzg0Mjg0LCJzIjoyfQ,,,85f334b4-31f9-42d0-bd7f-b843bf69ab51
609bde772e83057c2f482c93,2021-05-12 16:56:07.875,2021-05-12 16:56:07.875,609bdd7d2e83057c2f482c91,EUR,PAYROLL ACC,checking,2000,GR2801425050005703737347565,,GR2801425050005703737347565,PANAGIOTIS KARANIKOS GERASIMOS,,85f334b4-31f9-42d0-bd7f-b843bf69ab51
609bde772e83057c2f482c93,2021-05-12 16:56:07.875,2021-05-12 16:56:07.875,609bdd7d2e83057c2f482c91,EUR,PAYROLL ACC,saving,1000,GR2801125050005703737347565,,GR2801125050005703737347565,PANAGIOTIS KARANIKOS GERASIMOS,,85f334b4-31f9-42d0-bd7f-b843bf69a83a
