_id,date_updated,date_created,customer_id,iban,date,currency,amount,is_income,description,type,status,mcc,merchant_id,payee,payee_information,provider_id
609bed35963595b02e953b91,2021-05-12 17:59:01.575,2021-05-12 17:59:01.575,609bdd7d2e83057c2f482c91,GR2801725050005703737347565,2020-10-29 00:00:00.000,EUR,70.0,False,PAYMENT PAPADOPOULOS,,,,,,,bfaf298d44ded21a801174c050578ff4
609bf19639433558433119b3,2021-05-12 18:17:42.498,2021-05-12 18:17:42.498,609bdd7d2e83057c2f482c91,GR7802602790000670356236734,2020-07-28 00:00:00.000,EUR,24.8,False,PAYPAL * 28102 GR,,,,,,,abd4db573ed3be749775330c9ca8ebe8
609bf19639433558433117cb,2021-05-12 18:17:42.498,2021-05-12 18:17:42.498,609bdd7d2e83057c2f482c91,GR7802602790000670356236734,2020-12-29 00:00:00.000,EUR,3.4,False,BATALIS  PATRA GR,,,,,,,c07cac25a8c74c8ddaa5d50bbe32246e
609bf196394335584331180a,2021-05-12 18:17:42.498,2021-05-12 18:17:42.498,609bdd7d2e83057c2f482c91,GR7802602790000670356236734,2020-12-08 00:00:00.000,EUR,2.3,False,OLYMPIA  RIO   GR,,,,,,,cf8e1a6e60b257d4285adff87c066991
609bf19639433558433118e9,2021-05-12 18:17:42.498,2021-05-12 18:17:42.498,609bdd7d2e83057c2f482c91,GR7802602790000670356236734,2020-10-06 00:00:00.000,EUR,4.2,False,E FOOD G IRAKL GR,,,,,,,067b390969906f1a8a4666f1d36b3a07
609bf19639433558433117ac,2021-05-12 18:17:42.498,2021-05-12 18:17:42.498,609bdd7d2e83057c2f482c91,GR7802602790000670356236734,2021-01-05 00:00:00.000,EUR,2.2,False,OLYMPIA  KIATO GR,,,,,,,3ba77a6f496d2a26663735b8626f373d
609bf1963943355843311878,2021-05-12 18:17:42.498,2021-05-12 18:17:42.498,609bdd7d2e83057c2f482c91,GR7802602790000670356236734,2020-11-02 00:00:00.000,EUR,20.0,False,Revolut* GBR   LT,,,,,,,d2fe46e5d7251da6e7c5f5e46bc02824
609bed35963595b02e953c91,2021-05-12 17:59:01.575,2021-05-12 17:59:01.575,609bdd7d2e83057c2f482c91,GR6401711320006153432233452,2020-12-28 00:00:00.000,EUR,7.0,False,"CARD PURCHASE THEODOROPOULOS MIC PATRA        GR 7,00 EUR 516838xxxxxx6309",,,5411,,,,b246f34925ef629c27f82aafb94e5a7b
609bed35963595b02e953d0e,2021-05-12 17:59:01.575,2021-05-12 17:59:01.575,609bdd7d2e83057c2f482c91,GR6401711320006153432233452,2020-09-29 00:00:00.000,EUR,0.6,False,BILL PAYMENT COMMISSION VOLTERRA Α.Ε. ΙΔΙΩΤΕΣ RF72909298042623001267604 ΠΡΟΜΗΘΕΙΑ ΕΞΟΦΛΗΣΗΣ WB,,,,,,,f1fdb1b63172cf771e894a6aa223a82c
609bed35963595b02e953d7b,2021-05-12 17:59:01.575,2021-05-12 17:59:01.575,609bdd7d2e83057c2f482c91,GR6401711320006153432233452,2020-06-23 00:00:00.000,EUR,16.33,False,"AGRO FARM 16,33 EUR 516838xxxxxx6309",,,0763,,,,253e886fb9fb7702bef4ce9be92cc956
609bf065394335584331163d,2021-05-12 18:12:37.772,2021-05-12 18:12:37.772,609bdd7d2e83057c2f482c91,GR2801125050005703737347565,2020-07-28 00:00:00.000,EUR,7.0,False,BEAU RIVAGE  PATRAS,,,,,,,161e590593961018a41db10f27426e7e
609bf065394335584331163d,2021-05-12 18:12:37.772,2021-05-12 18:12:37.772,609bdd7d2e83057c2f482c91,535142******3621,2020-07-28 00:00:00.000,EUR,7.0,False,ΑΓΟΡΑ - BEAU RIVAGE PATRAS,,,,,,,161e590593961018a41db10f27426e7d
609bed35963595b02e95322a,2021-05-12 17:59:01.575,2021-05-12 17:59:01.575,609bdd7d2e83057c2f482c91,401779******6727,2020-06-23 00:00:00.000,EUR,20.0,False,MARKET STORE ATHENS,,,5499,,,,253e886fb9fb7702bef4ce9be92nc956
609bed35963595b02es5322b,2021-05-12 17:59:01.575,2021-05-12 17:59:01.575,609bdd7d2e83057c2f482c91,401779******6727,2020-06-23 00:00:00.000,EUR,100.0,False,CHARGING STATION TESLA,,,5552,,,,253e886fb9fb7702bef4ce9be92ac956
609bed359s3595b02e95322b,2021-05-12 17:59:01.575,2021-05-12 17:59:01.575,609bdd7d2e83057c2f482c91,401779******6727,2020-06-23 00:00:00.000,EUR,50.0,False,CAFE MEZEDOPOLEIO TAKIS,,,5499,,,,253e886fb9fb7702bef4ce9bed2cc956
609bed35963f95b02e95322b,2021-05-12 17:59:01.575,2021-05-12 17:59:01.575,609bdd7d2e83057c2f482c91,GR2801425050005703737347565,2020-06-23 00:00:00.000,EUR,50.0,False,CΑFΕ ΜΕΖΕDΟΡΟLΕΙΟ ΤΑΚΙS,,,,,,,253e886fb9fb7702bef4ce9bed2cc554
